Seminar 3 Tables and Tibbles (and Tribbles) | Data analysis using R for Psychology and Social Science
…
Do exercise 6.

3.11 Reading example tables

One of the great things about R is that most packages come with an example data set that illustrates their function. You can see the list of some of them here. In case of an example data set, you need to import the library that it is part of and then load them by writing data(tablename). For example, to use use mpg data on fuel economy from ggplot2 package, you need to import the library first, and then call data(mpg).

library(ggplot2)
data(mpg) # this create a "promise" of the data
print(mpg) # any action on the promise leads to data appearing in the environment

## # A tibble: 234 x 11
##    manufacturer model      displ  year   cyl trans drv     cty   hwy fl    class
##    <chr>        <chr>      <dbl> <int> <int> <chr> <chr> <int> <int> <chr> <chr>
##  1 audi         a4           1.8  1999     4 auto~ f        18    29 p     comp~
##  2 audi         a4           1.8  1999     4 manu~ f        21    29 p     comp~
##  3 audi         a4           2    2008     4 manu~ f        20    31 p     comp~
##  4 audi         a4           2    2008     4 auto~ f        21    30 p     comp~
##  5 audi         a4           2.8  1999     6 auto~ f        16    26 p     comp~
##  6 audi         a4           2.8  1999     6 manu~ f        18    26 p     comp~
##  7 audi         a4           3.1  2008     6 auto~ f        18    27 p     comp~
##  8 audi         a4 quattro   1.8  1999     4 manu~ 4        18    26 p     comp~
##  9 audi         a4 quattro   1.8  1999     4 auto~ 4        16    25 p     comp~
## 10 audi         a4 quattro   2    2008     4 manu~ 4        20    28 p     comp~
## # ... with 224 more rows
…
